# ICen, IEta, CostoOp
 202,   1,   0.000,
 203,   1,   0.000,
 204,   1,   0.000,
 205,   1,   0.000,
 206,   1,   0.000,
 207,   1,   0.000,
 208,   1,   0.000,
 209,   1,   0.000,
 210,   1,   0.000,
 211,   1,   0.000,
 212,   1,   0.000,
 213,   1,   0.000,
 214,   1,   0.000,
 215,   1,   0.000,
 216,   1,   0.000,
 217,   1,   0.000,
 218,   1,   0.000,
 219,   1,   0.000,
 220,   1,   0.000,
 221,   1,   0.000,
 222,   1,   0.000,
 223,   1,   0.000,
 224,   1,   0.000,
 225,   1,   0.000,
 226,   1,   0.000,
 227,   1,   0.000,
 228,   1,   0.000,
 229,   1,   0.000,
 230,   1,   0.000,
 231,   1,   0.000,
 232,   1,   0.000,
 233,   1,   0.000,
 234,   1,   0.000,
 235,   1,   0.000,
 236,   1,   0.000,
 237,   1,   0.000,
 238,   1,   0.000,
 239,   1,   0.000,
 240,   1,   0.000,
 241,   1,   0.000,
 242,   1,   0.000,
 243,   1,   0.000,
 244,   1,   0.000,
 245,   1,   0.000,
 246,   1,   0.000,
 247,   1,   0.000,
 248,   1,   0.000,
 249,   1,   0.000,
 250,   1,   0.000,
 251,   1,   0.000,
 252,   1,   0.000,
 253,   1,   0.000,
 254,   1,   0.000,
 255,   1,   0.000,
 256,   1,   0.000,
 257,   1,   0.000,
 258,   1,   0.000,
 259,   1,   0.000,
 260,   1,   0.000,
 261,   1,   0.000,
 262,   1,   0.000,
 263,   1,   0.000,
 264,   1,   0.000,
 265,   1,   0.000,
 266,   1,   1.100,
 267,   1,   0.000,
 268,   1,   0.000,
 269,   1,   0.000,
 270,   1,   0.000,
 271,   1,   0.000,
 272,   1,   0.000,
 273,   1,   0.000,
 274,   1,   0.000,
 275,   1,   0.000,
 276,   1,   0.000,
 277,   1,   0.000,
 278,   1,   0.000,
 279,   1,   0.000,
 280,   1,   0.000,
 281,   1,   0.000,
 282,   1,   0.000,
 283,   1,   0.000,
 284,   1,   0.000,
 285,   1,   0.000,
 286,   1,   0.000,
 287,   1,   0.000,
 288,   1,   0.000,
 289,   1,   0.000,
 290,   1,   0.000,
 291,   1,   0.000,
 292,   1,   0.000,
 293,   1,   0.000,
 294,   1,   0.000,
 295,   1,   0.000,
 296,   1,   0.000,
 297,   1,   0.000,
 298,   1,   0.000,
 299,   1,   0.000,
 300,   1,   0.000,
 301,   1,   0.000,
 302,   1,   0.000,
 303,   1,   0.000,
 304,   1,   0.000,
 305,   1,   0.000,
 306,   1,   0.000,
 307,   1,   0.000,
 308,   1,   0.000,
 309,   1,   0.000,
 310,   1,   0.000,
 311,   1,   0.000,
 312,   1,   0.000,
 313,   1,   0.000,
 314,   1,   0.000,
 315,   1,   0.000,
 316,   1,   0.000,
 317,   1,   0.000,
 318,   1,   0.000,
 319,   1,   0.000,
 320,   1,   0.000,
 321,   1,   0.000,
 322,   1,   0.000,
 323,   1,   0.000,
 324,   1,   0.000,
 325,   1,   0.000,
 326,   1,   0.000,
 327,   1,   0.000,
 328,   1,   0.000,
 329,   1,   0.000,
 330,   1,   0.000,
 331,   1,   0.000,
 332,   1,   0.000,
 333,   1,   0.000,
 334,   1,   0.000,
 335,   1,   0.000,
 336,   1,   0.000,
 337,   1,   0.000,
 338,   1,   0.000,
 339,   1,   0.000,
 340,   1,   0.000,
 341,   1,   0.000,
 342,   1,   0.000,
 343,   1,   0.000,
 344,   1,   0.000,
 345,   1,   0.000,
 346,   1,   0.000,
 347,   1,   0.000,
 348,   1,   0.000,
 349,   1,   0.000,
 350,   1,   0.000,
 351,   1,   0.000,
 352,   1,   0.000,
 353,   1,   0.000,
 354,   1,   0.000,
 355,   1,   0.000,
 356,   1,   0.000,
 357,   1,   0.000,
 358,   1,   0.000,
 359,   1,   0.000,
 360,   1,   0.000,
 361,   1,   0.000,
 362,   1,   0.000,
 363,   1,   0.000,
 364,   1,   0.000,
 365,   1,   0.000,
 366,   1,   0.000,
 367,   1,   0.000,
 368,   1,   0.000,
 369,   1,   0.000,
 370,   1,   0.000,
 371,   1,   0.000,
 372,   1,   0.000,
 373,   1,   0.000,
 374,   1,   0.000,
 375,   1,   0.000,
 376,   1,   0.000,
 377,   1,   0.000,
 378,   1,   0.000,
 379,   1,   0.000,
 380,   1,   0.000,
 381,   1,   0.000,
 382,   1,   0.000,
 383,   1,   0.000,
 384,   1,   0.000,
 385,   1,   0.000,
 386,   1,   0.000,
 387,   1,   0.000,
 388,   1,   0.000,
 389,   1,   0.000,
 390,   1,   0.000,
 391,   1,   0.000,
 392,   1,   0.000,
 393,   1,   0.000,
 394,   1,   0.000,
 395,   1,   0.000,
 396,   1,   0.000,
 397,   1,   0.000,
 398,   1,   0.000,
 399,   1,   0.000,
 400,   1,   0.000,
 401,   1,   0.000,
 402,   1,   0.000,
 403,   1,   0.000,
 404,   1,   0.000,
 405,   1,   0.000,
 406,   1,   0.000,
 407,   1,   0.000,
 408,   1,   0.000,
 409,   1,   0.000,
 410,   1,   0.000,
 411,   1,   0.000,
 412,   1,   0.000,
 413,   1,   0.000,
 414,   1,   0.000,
 415,   1,   0.000,
 416,   1,   0.000,
 417,   1,   0.000,
 418,   1,   0.000,
 419,   1,   0.000,
 420,   1,   0.000,
 421,   1,   0.000,
 422,   1,   0.000,
 423,   1,   0.000,
 424,   1,   0.000,
 425,   1,   0.000,
 426,   1,   0.000,
 427,   1,   0.000,
 428,   1,   0.000,
 429,   1,   0.000,
 430,   1,   0.000,
 431,   1,   0.000,
 432,   1,   0.000,
 433,   1,   0.000,
 434,   1,   0.000,
 435,   1,  64.700,
 435,  12,  64.700,
 435,  24,  67.100,
 436,   1,  56.700,
 436,  12,  56.700,
 436,  24,  58.800,
 437,   1,  56.700,
 437,  12,  56.700,
 437,  24,  58.800,
 438,   1,  56.700,
 438,  12,  56.700,
 438,  24,  58.800,
 439,   1,  56.700,
 439,  12,  56.700,
 439,  24,  58.800,
 440,   1,  57.800,
 440,  12,  57.800,
 440,  24,  60.000,
 441,   1,   3.800,
 442,   1, 125.300,
 442,  12, 125.300,
 442,  24, 154.000,
 443,   1, 242.700,
 443,  12, 242.700,
 443,  24, 300.200,
 444,   1,  42.200,
 445,   1,  42.700,
 446,   1,  40.100,
 446,  12,  40.100,
 446,  24,  40.200,
 447,   1,  42.500,
 448,   1,  42.700,
 449,   1, 193.000,
 449,  12, 193.000,
 449,  24, 236.900,
 450,   1,  93.500,
 450,  12,  93.500,
 450,  24,  97.100,
 451,   1,  93.500,
 451,  12,  93.500,
 451,  24,  97.100,
 452,   1,  83.400,
 452,  12,  83.400,
 452,  24,  86.600,
 453,   1,  90.100,
 453,  12,  90.100,
 453,  24,  93.600,
 454,   1,  92.300,
 454,  12,  92.300,
 454,  24,  95.900,
 455,   1,   4.000,
 456,   1, 193.000,
 456,  12, 193.000,
 456,  24, 236.900,
 457,   1,  93.500,
 457,  12,  93.500,
 457,  24,  97.100,
 458,   1,  93.500,
 458,  12,  93.500,
 458,  24,  97.100,
 459,   1,  83.400,
 459,  12,  83.400,
 459,  24,  86.600,
 460,   1,  90.100,
 460,  12,  90.100,
 460,  24,  93.600,
 461,   1,  92.300,
 461,  12,  92.300,
 461,  24,  95.900,
 462,   1,   4.000,
 463,   1, 248.500,
 463,  12, 248.500,
 463,  24, 307.200,
 464,   1, 225.600,
 464,  12, 225.600,
 464,  24, 277.000,
 465,   1, 248.500,
 465,  12, 248.500,
 465,  24, 307.200,
 466,   1, 225.600,
 466,  12, 225.600,
 466,  24, 277.000,
 467,   1, 248.500,
 467,  12, 248.500,
 467,  24, 307.200,
 468,   1, 225.600,
 468,  12, 225.600,
 468,  24, 277.000,
 469,   1, 169.300,
 469,  12, 169.300,
 469,  24, 207.800,
 470,   1, 196.400,
 470,  12, 196.400,
 470,  24, 243.600,
 471,   1, 196.400,
 471,  12, 196.400,
 471,  24, 243.600,
 472,   1,   2.800,
 473,   1,   2.800,
 474,   1, 106.800,
 474,  12, 106.800,
 474,  24, 111.000,
 475,   1, 104.700,
 475,  12, 104.700,
 475,  24, 108.800,
 476,   1, 107.900,
 476,  12, 107.900,
 476,  24, 112.100,
 477,   1, 128.800,
 477,  12, 128.800,
 477,  24, 133.900,
 478,   1, 101.500,
 478,  12, 101.500,
 478,  24, 105.500,
 479,   1, 101.300,
 479,  12, 101.300,
 479,  24, 105.300,
 480,   1, 123.800,
 480,  12, 123.800,
 480,  24, 128.700,
 481,   1, 106.800,
 481,  12, 106.800,
 481,  24, 111.000,
 482,   1, 104.700,
 482,  12, 104.700,
 482,  24, 108.800,
 483,   1, 107.900,
 483,  12, 107.900,
 483,  24, 112.100,
 484,   1, 128.800,
 484,  12, 128.800,
 484,  24, 133.900,
 485,   1, 101.500,
 485,  12, 101.500,
 485,  24, 105.500,
 486,   1, 101.300,
 486,  12, 101.300,
 486,  24, 105.300,
 487,   1, 123.800,
 487,  12, 123.800,
 487,  24, 128.700,
 488,   1, 114.800,
 488,  12, 114.800,
 488,  24, 141.500,
 489,   1,  63.300,
 489,  12,  63.300,
 489,  24,  65.800,
 490,   1,  62.000,
 490,  12,  62.000,
 490,  24,  64.400,
 491,   1,  64.000,
 491,  12,  64.000,
 491,  24,  66.500,
 492,   1,  77.100,
 492,  12,  77.100,
 492,  24,  80.100,
 493,   1,  60.000,
 493,  12,  60.000,
 493,  24,  62.300,
 494,   1,  59.900,
 494,  12,  59.900,
 494,  24,  62.200,
 495,   1,  74.000,
 495,  12,  74.000,
 495,  24,  76.900,
 496,   1,   2.900,
 497,   1,  94.500,
 497,  12,  94.500,
 497,  24,  98.200,
 498,   1,  92.500,
 498,  12,  92.500,
 498,  24,  96.100,
 499,   1,  95.500,
 499,  12,  95.500,
 499,  24,  99.300,
 500,   1, 115.400,
 500,  12, 115.400,
 500,  24, 120.000,
 501,   1,  89.500,
 501,  12,  89.500,
 501,  24,  93.000,
 502,   1,  89.300,
 502,  12,  89.300,
 502,  24,  92.800,
 503,   1, 110.700,
 503,  12, 110.700,
 503,  24, 115.000,
 504,   1,   2.900,
 505,   1, 114.700,
 505,  12, 114.700,
 505,  24, 141.300,
 506,   1,   2.400,
 507,   1,  57.900,
 507,  12,  57.900,
 507,  24,  60.200,
 508,   1,  56.700,
 508,  12,  56.700,
 508,  24,  58.900,
 509,   1,  58.600,
 509,  12,  58.600,
 509,  24,  60.800,
 510,   1,  70.600,
 510,  12,  70.600,
 510,  24,  73.400,
 511,   1,  54.900,
 511,  12,  54.900,
 511,  24,  57.000,
 512,   1,  54.800,
 512,  12,  54.800,
 512,  24,  56.900,
 513,   1,  67.700,
 513,  12,  67.700,
 513,  24,  70.400,
 514,   1,  87.800,
 514,  12,  87.800,
 514,  24,  91.200,
 515,   1,  85.900,
 515,  12,  85.900,
 515,  24,  89.300,
 516,   1,  88.700,
 516,  12,  88.700,
 516,  24,  92.200,
 517,   1, 107.100,
 517,  12, 107.100,
 517,  24, 111.300,
 518,   1,  83.100,
 518,  12,  83.100,
 518,  24,  86.400,
 519,   1,  83.000,
 519,  12,  83.000,
 519,  24,  86.200,
 520,   1, 102.700,
 520,  12, 102.700,
 520,  24, 106.700,
 521,   1,   3.300,
 522,   1, 193.500,
 522,  12, 193.500,
 522,  24, 239.600,
 523,   1, 138.200,
 523,  12, 138.200,
 523,  24, 169.100,
 524,   1, 136.100,
 524,  12, 136.100,
 524,  24, 167.000,
 525,   1,  61.700,
 525,  12,  61.700,
 525,  24,  63.900,
 526,   1,  59.600,
 526,  12,  59.600,
 526,  24,  61.800,
 527,   1,  82.200,
 527,  12,  82.200,
 527,  24,  85.200,
 528,   1,  61.700,
 528,  12,  61.700,
 528,  24,  63.900,
 529,   1,  59.600,
 529,  12,  59.600,
 529,  24,  61.800,
 530,   1,  82.200,
 530,  12,  82.200,
 530,  24,  85.200,
 531,   1,  61.700,
 531,  12,  61.700,
 531,  24,  63.900,
 532,   1,  59.600,
 532,  12,  59.600,
 532,  24,  61.800,
 533,   1,  82.200,
 533,  12,  82.200,
 533,  24,  85.200,
 534,   1,  61.700,
 534,  12,  61.700,
 534,  24,  63.900,
 535,   1,  59.600,
 535,  12,  59.600,
 535,  24,  61.800,
 536,   1,  82.200,
 536,  12,  82.200,
 536,  24,  85.200,
 537,   1,  62.900,
 537,  12,  62.900,
 537,  24,  65.100,
 538,   1,  60.800,
 538,  12,  60.800,
 538,  24,  63.100,
 539,   1,  83.800,
 539,  12,  83.800,
 539,  24,  86.900,
 540,   1,  68.900,
 540,  12,  68.900,
 540,  24,  71.300,
 541,   1,  52.000,
 541,  12,  52.000,
 541,  24,  53.800,
 542,   1,  49.900,
 542,  12,  49.900,
 542,  24,  51.700,
 543,   1,   7.600,
 544,   1,   5.500,
 545,   1,   7.700,
 546,   1, 193.900,
 546,  12, 193.900,
 546,  24, 238.100,
 547,   1, 123.600,
 547,  12, 123.600,
 547,  24, 151.500,
 548,   1, 121.000,
 548,  12, 121.000,
 548,  24, 148.900,
 549,   1, 172.500,
 549,  12, 172.500,
 549,  24, 212.300,
 550,   1,  56.400,
 550,  12,  56.400,
 550,  24,  58.400,
 551,   1,  54.200,
 551,  12,  54.200,
 551,  24,  56.200,
 552,   1,  79.900,
 552,  12,  79.900,
 552,  24,  82.900,
 553,   1,  56.400,
 553,  12,  56.400,
 553,  24,  58.500,
 554,   1,  54.200,
 554,  12,  54.200,
 554,  24,  56.200,
 555,   1,  79.900,
 555,  12,  79.900,
 555,  24,  83.000,
 556,   1,  56.400,
 556,  12,  56.400,
 556,  24,  58.400,
 557,   1,  54.200,
 557,  12,  54.200,
 557,  24,  56.200,
 558,   1,  79.900,
 558,  12,  79.900,
 558,  24,  82.900,
 559,   1,  56.400,
 559,  12,  56.400,
 559,  24,  58.400,
 560,   1,  54.200,
 560,  12,  54.200,
 560,  24,  56.200,
 561,   1,  79.900,
 561,  12,  79.900,
 561,  24,  82.900,
 562,   1,  57.500,
 562,  12,  57.500,
 562,  24,  59.600,
 563,   1,  55.300,
 563,  12,  55.300,
 563,  24,  57.300,
 564,   1,  81.500,
 564,  12,  81.500,
 564,  24,  84.600,
 565,   1,  66.600,
 565,  12,  66.600,
 565,  24,  69.100,
 566,   1,  47.400,
 566,  12,  47.400,
 566,  24,  49.100,
 567,   1,  45.200,
 567,  12,  45.200,
 567,  24,  46.800,
 568,   1,   6.200,
 569,   1,   4.000,
 570,   1,   5.700,
 571,   1, 193.000,
 571,  12, 193.000,
 571,  24, 234.100,
 572,   1, 234.700,
 572,  12, 234.700,
 572,  24, 275.000,
 573,   1, 195.400,
 573,  12, 195.400,
 573,  24, 235.700,
 574,   1, 183.800,
 574,  12, 183.800,
 574,  24, 222.600,
 575,   1, 148.100,
 575,  12, 148.100,
 575,  24, 177.200,
 576,   1, 281.100,
 576,  12, 281.100,
 576,  24, 338.500,
 577,   1,  54.600,
 577,  12,  54.600,
 577,  24,  54.700,
 578,   1,  61.400,
 579,   1,  44.100,
 580,   1, 254.300,
 580,  12, 254.300,
 580,  24, 314.400,
 581,   1, 191.600,
 581,  12, 191.600,
 581,  24, 237.500,
 582,   1, 199.600,
 582,  12, 199.600,
 582,  24, 247.500,
 583,   1, 199.600,
 583,  12, 199.600,
 583,  24, 247.500,
 584,   1,   1.400,
 585,   1,  46.900,
 586,   1,  55.200,
 587,   1, 126.500,
 587,  12, 126.500,
 587,  24, 154.200,
 588,   1, 191.900,
 588,  12, 191.900,
 588,  24, 237.900,
 589,   1, 264.200,
 589,  12, 264.200,
 589,  24, 326.400,
 590,   1, 197.000,
 590,  12, 197.000,
 590,  24, 238.200,
 591,   1, 192.300,
 591,  12, 192.300,
 591,  24, 232.900,
 592,   1, 129.200,
 592,  12, 129.200,
 592,  24, 155.300,
 593,   1, 129.200,
 593,  12, 129.200,
 593,  24, 155.300,
 594,   1,  90.100,
 594,  12,  90.100,
 594,  24, 111.100,
 595,   1, 159.400,
 595,  12, 159.400,
 595,  24, 198.300,
 596,   1, 192.900,
 596,  12, 192.900,
 596,  24, 231.800,
 597,   1, 191.700,
 597,  12, 191.700,
 597,  24, 229.300,
 598,   1, 223.000,
 598,  12, 223.000,
 598,  24, 268.200,
 599,   1, 133.100,
 599,  12, 133.100,
 599,  24, 160.400,
 600,   1, 133.100,
 600,  12, 133.100,
 600,  24, 160.400,
 601,   1, 131.200,
 601,  12, 131.200,
 601,  24, 158.100,
 602,   1, 135.900,
 602,  12, 135.900,
 602,  24, 163.900,
 603,   1, 260.200,
 603,  12, 260.200,
 603,  24, 322.700,
 604,   1, 260.200,
 604,  12, 260.200,
 604,  24, 322.700,
 605,   1,  24.700,
 606,   1, 161.000,
 606,  12, 161.000,
 606,  24, 199.800,
 607,   1,  21.700,
 608,   1,  48.800,
 609,   1,  14.300,
 610,   1,  33.300,
 611,   1,  43.800,
 612,   1, 166.800,
 612,  12, 166.800,
 612,  24, 206.300,
 613,   1,   0.000,
 614,   1,  24.800,
 615,   1,  26.100,
 616,   1,   0.000,
 617,   1,  23.300,
 618,   1, 131.700,
 618,  12, 131.700,
 618,  24, 163.700,
 619,   1, 250.100,
 619,  12, 250.100,
 619,  24, 308.600,
 620,   1,  48.400,
 621,   1,   0.000,
 622,   1,  43.300,
 622,  24,  43.300,
 623,   1,  40.200,
 624,   1,  55.300,
 625,   1,  80.000,
 626,   1,  44.100,
 627,   1,  40.000,
 628,   1,   3.900,
 629,   1, 184.900,
 629,  12, 184.900,
 629,  24, 226.400,
 630,   1,  97.700,
 630,  12,  97.700,
 630,  24, 101.200,
 631,   1,  80.300,
 631,  12,  80.300,
 631,  24,  83.100,
 632,   1,  10.200,
 633,   1, 112.200,
 633,  12, 112.200,
 633,  24, 136.100,
 634,   1, 138.300,
 634,  12, 138.300,
 634,  24, 171.000,
 635,   1, 180.200,
 635,  12, 180.200,
 635,  24, 217.300,
 636,   1, 257.600,
 636,  12, 257.600,
 636,  24, 314.500,
 637,   1, 283.800,
 637,  12, 283.800,
 637,  24, 347.100,
 638,   1, 220.100,
 638,  12, 220.100,
 638,  24, 268.200,
 639,   1, 174.800,
 639,  12, 174.800,
 639,  24, 210.500,
 640,   1, 177.300,
 640,  12, 177.300,
 640,  24, 213.700,
 641,   1, 225.700,
 641,  12, 225.700,
 641,  24, 264.200,
 642,   1, 184.300,
 642,  12, 184.300,
 642,  24, 222.800,
 643,   1, 206.200,
 643,  12, 206.200,
 643,  24, 254.600,
 644,   1, 138.300,
 644,  12, 138.300,
 644,  24, 143.600,
 645,   1,  69.300,
 645,  12,  69.300,
 645,  24,  71.900,
 646,   1, 170.700,
 646,  12, 170.700,
 646,  24, 211.000,
 647,   1, 170.700,
 647,  12, 170.700,
 647,  24, 211.000,
 648,   1,  88.500,
 648,  12,  88.500,
 648,  24,  91.900,
 649,   1,  88.500,
 649,  12,  88.500,
 649,  24,  91.900,
 650,   1,  88.500,
 650,  12,  88.500,
 650,  24,  91.900,
 651,   1,  88.500,
 651,  12,  88.500,
 651,  24,  91.900,
 652,   1,  88.500,
 652,  12,  88.500,
 652,  24,  91.900,
 653,   1,  88.500,
 653,  12,  88.500,
 653,  24,  91.900,
 654,   1,  88.500,
 654,  12,  88.500,
 654,  24,  91.900,
 655,   1,  88.500,
 655,  12,  88.500,
 655,  24,  91.900,
 656,   1,  90.300,
 656,  12,  90.300,
 656,  24,  93.800,
 657,   1,  90.300,
 657,  12,  90.300,
 657,  24,  93.800,
 658,   1,  73.700,
 658,  12,  73.700,
 658,  24,  76.600,
 659,   1,  73.700,
 659,  12,  73.700,
 659,  24,  76.600,
 660,   1,   3.800,
 661,   1,   3.800,
 662,   1, 122.600,
 662,  12, 122.600,
 662,  24, 148.400,
 663,   1,  45.300,
 664,   1,  40.900,
 665,   1, 226.300,
 665,  12, 226.300,
 665,  24, 280.800,
 666,   1,   0.000,
 667,   1,  24.200,
 668,   1, 211.400,
 668,  12, 211.400,
 668,  24, 260.000,
 669,   1,   0.000,
 670,   1,  40.600,
 671,   1, 152.400,
 671,  12, 152.400,
 671,  24, 158.200,
 672,   1, 142.100,
 672,  12, 142.100,
 672,  24, 147.400,
 673,   1, 172.000,
 673,  12, 172.000,
 673,  24, 209.700,
 674,   1, 216.000,
 674,  12, 216.000,
 674,  24, 263.100,
 675,   1, 196.700,
 675,  12, 196.700,
 675,  24, 239.100,
 676,   1, 211.900,
 676,  12, 211.900,
 676,  24, 258.000,
 677,   1, 262.900,
 677,  12, 262.900,
 677,  24, 312.800,
 678,   1,   0.000,
 679,   1,   0.000,
 680,   1,  19.800,
 681,   1, 143.100,
 681,  12, 143.100,
 681,  24, 177.300,
 682,   1, 201.100,
 682,  12, 201.100,
 682,  24, 244.800,
 683,   1, 222.600,
 683,  12, 222.600,
 683,  24, 273.400,
 684,   1, 238.300,
 684,  12, 238.300,
 684,  24, 292.900,
 685,   1, 184.200,
 685,  12, 184.200,
 685,  24, 223.800,
 686,   1,  40.400,
 686,  24,  40.400,
 687,   1, 243.700,
 687,  12, 243.700,
 687,  24, 293.500,
 688,   1, 169.800,
 688,  12, 169.800,
 688,  24, 210.500,
 689,   1, 169.800,
 689,  12, 169.800,
 689,  24, 210.500,
 690,   1, 199.400,
 690,  12, 199.400,
 690,  24, 239.400,
 691,   1, 198.100,
 691,  12, 198.100,
 691,  24, 238.400,
 692,   1, 196.600,
 692,  12, 196.600,
 692,  24, 236.100,
 693,   1, 190.300,
 693,  12, 190.300,
 693,  24, 229.500,
 694,   1, 191.500,
 694,  12, 191.500,
 694,  24, 230.800,
 695,   1, 201.800,
 695,  12, 201.800,
 695,  24, 239.900,
 696,   1, 201.800,
 696,  12, 201.800,
 696,  24, 239.900,
 697,   1,  11.600,
 698,   1,  10.300,
 699,   1,   0.000,
 700,   1,  25.800,
 701,   1,   4.400,
 702,   1, 249.700,
 702,  12, 249.700,
 702,  24, 301.000,
 703,   1, 234.700,
 703,  12, 234.700,
 703,  24, 275.000,
 704,   1, 234.700,
 704,  12, 234.700,
 704,  24, 275.000,
 705,   1, 234.700,
 705,  12, 234.700,
 705,  24, 275.000,
 706,   1, 234.700,
 706,  12, 234.700,
 706,  24, 275.000,
 707,   1, 249.700,
 707,  12, 249.700,
 707,  24, 301.000,
 708,   1, 227.900,
 708,  12, 227.900,
 708,  24, 276.500,
 709,   1,  59.500,
 710,   1,  15.000,
 711,   1,  71.700,
 711,  12,  71.700,
 711,  24,  74.100,
 712,   1,  82.800,
 712,  12,  82.800,
 712,  24,  85.600,
 713,   1,  78.700,
 713,  12,  78.700,
 713,  24,  81.400,
 714,   1,  13.500,
 715,   1,  41.700,
 715,  12,  41.700,
 715,  24,  43.200,
 716,   1,  48.700,
 716,  12,  48.700,
 716,  24,  50.500,
 717,   1,  46.200,
 717,  12,  46.200,
 717,  24,  47.800,
 718,   1,   4.700,
 719,   1, 194.700,
 719,  12, 194.700,
 719,  24, 238.900,
 720,   1, 149.300,
 720,  12, 149.300,
 720,  24, 184.000,
 721,   1, 182.200,
 721,  12, 182.200,
 721,  24, 224.400,
 722,   1, 181.300,
 722,  12, 181.300,
 722,  24, 223.200,
 723,   1, 179.500,
 723,  12, 179.500,
 723,  24, 221.000,
 724,   1, 218.000,
 724,  12, 218.000,
 724,  24, 270.700,
 725,   1, 179.700,
 725,  12, 179.700,
 725,  24, 221.500,
 726,   1, 181.200,
 726,  12, 181.200,
 726,  24, 222.900,
 727,   1, 156.800,
 727,  12, 156.800,
 727,  24, 193.900,
 728,   1, 195.100,
 728,  12, 195.100,
 728,  24, 240.200,
 729,   1,  55.600,
 730,   1,  54.000,
 730,  24,  54.000,
 731,   1, 209.900,
 731,  12, 209.900,
 731,  24, 255.500,
 732,   1,  65.000,
 733,   1,  65.900,
 734,   1,  56.700,
 735,   1,  54.900,
 735,  12,  54.900,
 735,  24,  55.000,
 736,   1, 261.400,
 736,  12, 261.400,
 736,  24, 324.900,
 737,   1, 261.400,
 737,  12, 261.400,
 737,  24, 324.900,
 738,   1, 196.400,
 738,  12, 196.400,
 738,  24, 244.100,
 739,   1,  63.400,
 739,  12,  63.400,
 739,  24,  66.000,
 740,   1,  75.200,
 740,  12,  75.200,
 740,  24,  78.200,
 741,   1,  71.000,
 741,  12,  71.000,
 741,  24,  73.800,
 742,   1,  71.000,
 742,  12,  71.000,
 742,  24,  73.800,
 743,   1,  71.000,
 743,  12,  71.000,
 743,  24,  73.800,
 744,   1,   1.000,
 745,   1, 214.900,
 745,  12, 214.900,
 745,  24, 263.900,
 746,   1, 236.000,
 746,  12, 236.000,
 746,  24, 289.900,
 747,   1,  38.600,
 748,   1,  37.600,
 749,   1,  40.500,
 749,  24,  40.500,
 750,   1, 266.100,
 750,  12, 266.100,
 750,  24, 330.900,
 751,   1, 164.600,
 751,  12, 164.600,
 751,  24, 200.000,
 752,   1, 161.000,
 752,  12, 161.000,
 752,  24, 196.000,
 753,   1, 146.900,
 753,  12, 146.900,
 753,  24, 178.000,
 754,   1, 158.900,
 754,  12, 158.900,
 754,  24, 192.100,
 755,   1, 160.800,
 755,  12, 160.800,
 755,  24, 195.800,
 756,   1,  56.300,
 756,  12,  56.300,
 756,  24,  57.900,
 757,   1,  63.800,
 757,  12,  63.800,
 757,  24,  65.700,
 758,   1,  61.100,
 758,  12,  61.100,
 758,  24,  62.900,
 759,   1,  61.100,
 759,  12,  61.100,
 759,  24,  62.900,
 760,   1,  61.100,
 760,  12,  61.100,
 760,  24,  62.900,
 761,   1,  16.900,
 762,   1,  39.600,
 762,  12,  39.600,
 762,  24,  40.900,
 763,   1,  45.800,
 763,  12,  45.800,
 763,  24,  47.400,
 764,   1,  43.600,
 764,  12,  43.600,
 764,  24,  45.100,
 765,   1,  43.600,
 765,  12,  43.600,
 765,  24,  45.100,
 766,   1,  43.600,
 766,  12,  43.600,
 766,  24,  45.100,
 767,   1,   6.400,
 768,   1, 197.800,
 768,  12, 197.800,
 768,  24, 225.200,
 769,   1, 244.200,
 769,  12, 244.200,
 769,  24, 292.100,
 770,   1, 143.800,
 770,  12, 143.800,
 770,  24, 176.700,
 771,   1, 255.900,
 771,  12, 255.900,
 771,  24, 306.700,
 772,   1, 142.900,
 772,  12, 142.900,
 772,  24, 175.500,
 773,   1, 137.000,
 773,  12, 137.000,
 773,  24, 168.500,
 774,   1, 142.300,
 774,  12, 142.300,
 774,  24, 146.100,
 775,   1,  47.400,
 776,   1,  65.900,
 776,  12,  65.900,
 776,  24,  68.400,
 777,   1,   4.400,
 778,   1, 148.400,
 778,  12, 148.400,
 778,  24, 152.500,
 779,   1,  47.400,
 780,   1,  67.900,
 780,  12,  67.900,
 780,  24,  70.500,
 781,   1,   4.400,
 782,   1,  64.400,
 782,  12,  64.400,
 782,  24,  66.800,
 783,   1,   4.400,
 784,   1, 142.300,
 784,  12, 142.300,
 784,  24, 146.100,
 785,   1,  65.900,
 785,  12,  65.900,
 785,  24,  68.400,
 786,   1, 148.400,
 786,  12, 148.400,
 786,  24, 152.500,
 787,   1,  67.900,
 787,  12,  67.900,
 787,  24,  70.500,
 788,   1,  64.400,
 788,  12,  64.400,
 788,  24,  66.800,
 789,   1, 131.600,
 789,  12, 131.600,
 789,  24, 135.000,
 790,   1,  59.000,
 790,  12,  59.000,
 790,  24,  61.200,
 791,   1, 137.100,
 791,  12, 137.100,
 791,  24, 140.700,
 792,   1,  60.800,
 792,  12,  60.800,
 792,  24,  63.000,
 793,   1,  57.700,
 793,  12,  57.700,
 793,  24,  59.800,
 794,   1, 138.700,
 794,  12, 138.700,
 794,  24, 142.400,
 795,   1,  63.600,
 795,  12,  63.600,
 795,  24,  66.000,
 796,   1, 144.600,
 796,  12, 144.600,
 796,  24, 148.600,
 797,   1,  65.500,
 797,  12,  65.500,
 797,  24,  68.000,
 798,   1,  62.200,
 798,  12,  62.200,
 798,  24,  64.500,
 799,   1, 141.100,
 799,  12, 141.100,
 799,  24, 144.900,
 800,   1,  65.100,
 800,  12,  65.100,
 800,  24,  67.600,
 801,   1, 147.200,
 801,  12, 147.200,
 801,  24, 151.200,
 802,   1,  67.100,
 802,  12,  67.100,
 802,  24,  69.600,
 803,   1,  63.700,
 803,  12,  63.700,
 803,  24,  66.100,
 804,   1, 237.000,
 804,  12, 237.000,
 804,  24, 284.200,
 805,   1, 140.900,
 805,  12, 140.900,
 805,  24, 173.100,
 806,   1, 251.400,
 806,  12, 251.400,
 806,  24, 301.100,
 807,   1, 141.200,
 807,  12, 141.200,
 807,  24, 173.500,
 808,   1, 133.400,
 808,  12, 133.400,
 808,  24, 164.000,
 809,   1, 140.100,
 809,  12, 140.100,
 809,  24, 144.000,
 810,   1,  43.400,
 811,   1,  69.700,
 811,  12,  69.700,
 811,  24,  72.400,
 812,   1,   4.400,
 813,   1, 149.200,
 813,  12, 149.200,
 813,  24, 153.300,
 814,   1,  47.400,
 815,   1,  69.100,
 815,  12,  69.100,
 815,  24,  71.700,
 816,   1,   4.400,
 817,   1,  64.400,
 817,  12,  64.400,
 817,  24,  66.800,
 818,   1,   4.400,
 819,   1, 140.100,
 819,  12, 140.100,
 819,  24, 144.000,
 820,   1,  69.700,
 820,  12,  69.700,
 820,  24,  72.400,
 821,   1, 149.200,
 821,  12, 149.200,
 821,  24, 153.300,
 822,   1,  69.100,
 822,  12,  69.100,
 822,  24,  71.700,
 823,   1,  64.400,
 823,  12,  64.400,
 823,  24,  66.800,
 824,   1, 129.200,
 824,  12, 129.200,
 824,  24, 132.700,
 825,   1,  62.400,
 825,  12,  62.400,
 825,  24,  64.700,
 826,   1, 137.800,
 826,  12, 137.800,
 826,  24, 141.400,
 827,   1,  61.800,
 827,  12,  61.800,
 827,  24,  64.100,
 828,   1,  57.700,
 828,  12,  57.700,
 828,  24,  59.800,
 829,   1, 136.500,
 829,  12, 136.500,
 829,  24, 140.200,
 830,   1,  67.300,
 830,  12,  67.300,
 830,  24,  69.800,
 831,   1, 145.400,
 831,  12, 145.400,
 831,  24, 149.300,
 832,   1,  66.600,
 832,  12,  66.600,
 832,  24,  69.100,
 833,   1,  62.200,
 833,  12,  62.200,
 833,  24,  64.500,
 834,   1, 138.900,
 834,  12, 138.900,
 834,  24, 142.700,
 835,   1,  68.900,
 835,  12,  68.900,
 835,  24,  71.500,
 836,   1, 147.900,
 836,  12, 147.900,
 836,  24, 152.000,
 837,   1,  68.200,
 837,  12,  68.200,
 837,  24,  70.800,
 838,   1,  63.700,
 838,  12,  63.700,
 838,  24,  66.100,
 839,   1,  46.300,
 840,   1,  45.900,
 841,   1,  40.100,
 842,   1,  39.800,
 843,   1,  54.000,
 843,  24,  54.000,
 844,   1,   0.000,
 845,   1,  45.500,
 845,  24,  45.500,
 846,   1,  45.500,
 846,  24,  45.500,
 847,   1, 101.400,
 847,  12, 101.400,
 847,  24, 105.300,
 848,   1, 106.400,
 848,  12, 106.400,
 848,  24, 110.500,
 849,   1, 108.600,
 849,  12, 108.600,
 849,  24, 112.800,
 850,   1,   4.600,
 851,   1,  69.000,
 851,  12,  69.000,
 851,  24,  71.600,
 852,   1,  72.300,
 852,  12,  72.300,
 852,  24,  75.100,
 853,   1,  73.800,
 853,  12,  73.800,
 853,  24,  76.700,
 854,   1,   3.200,
 855,   1, 101.400,
 855,  12, 101.400,
 855,  24, 105.300,
 856,   1, 106.400,
 856,  12, 106.400,
 856,  24, 110.500,
 857,   1, 108.600,
 857,  12, 108.600,
 857,  24, 112.800,
 858,   1,   4.600,
 859,   1,  69.000,
 859,  12,  69.000,
 859,  24,  71.600,
 860,   1,  72.300,
 860,  12,  72.300,
 860,  24,  75.100,
 861,   1,  73.800,
 861,  12,  73.800,
 861,  24,  76.700,
 862,   1,   3.200,
 863,   1,  66.900,
 863,  12,  66.900,
 863,  24,  69.500,
 864,   1,  70.200,
 864,  12,  70.200,
 864,  24,  73.000,
 865,   1,  71.700,
 865,  12,  71.700,
 865,  24,  74.500,
 866,   1,   1.700,
 867,   1, 164.700,
 867,  12, 164.700,
 867,  24, 202.500,
 868,   1, 117.200,
 868,  12, 117.200,
 868,  24, 144.100,
 869,   1, 164.700,
 869,  12, 164.700,
 869,  24, 202.500,
 870,   1, 117.200,
 870,  12, 117.200,
 870,  24, 144.100,
 871,   1, 110.900,
 871,  12, 110.900,
 871,  24, 137.200,
 872,   1, 120.600,
 872,  12, 120.600,
 872,  24, 145.900,
 873,   1, 121.700,
 873,  12, 121.700,
 873,  24, 147.200,
 874,   1, 118.000,
 874,  12, 118.000,
 874,  24, 142.600,
 875,   1, 119.600,
 875,  12, 119.600,
 875,  24, 144.600,
 876,   1, 123.200,
 876,  12, 123.200,
 876,  24, 149.300,
 877,   1, 121.100,
 877,  12, 121.100,
 877,  24, 146.700,
 878,   1, 181.900,
 878,  12, 181.900,
 878,  24, 222.800,
 879,   1, 130.100,
 879,  12, 130.100,
 879,  24, 159.600,
 880,   1, 126.500,
 880,  12, 126.500,
 880,  24, 154.200,
 881,   1, 175.600,
 881,  12, 175.600,
 881,  24, 214.500,
 882,   1,   0.000,
 883,   1,   0.000,
 884,   1,   0.000,
 885,   1,   0.000,
 886,   1,   0.000,
 887,   1,   0.000,
 888,   1,   0.000,
 889,   1,   0.000,
 890,   1,   0.000,
 891,   1,   0.000,
 892,   1,   0.000,
 893,   1,   0.000,
 894,   1,   0.000,
 895,   1,   0.000,
 896,   1,   0.000,
 897,   1,   0.000,
 898,   1,   0.000,
 899,   1,   0.000,
 900,   1,   0.000,
 901,   1,   0.000,
 902,   1,   0.000,
 903,   1,   0.000,
 904,   1,   0.000,
 905,   1, 234.700,
 905,  12, 234.700,
 905,  24, 275.000,
 906,   1, 234.700,
 906,  12, 234.700,
 906,  24, 275.000,
 907,   1,   0.000,
 908,   1,   0.000,
 909,   1,   0.000,
 910,   1,   0.000,
 911,   1,   0.000,
 912,   1,   0.000,
 913,   1,   0.000,
 914,   1,   0.000,
 915,   1,   0.000,
 916,   1,   0.000,
 917,   1,   0.000,
 918,   1,   0.000,
 919,   1,   0.000,
 920,   1,   0.000,
 921,   1,   0.000,
 922,   1,   0.000,
 923,   1,   0.000,
 924,   1,   0.000,
 925,   1,   0.000,
 926,   1,   0.000,
 927,   1,   0.000,
 928,   1,   0.000,
 929,   1,   0.000,
 930,   1,   0.000,
 931,   1,   0.000,
 932,   1,   0.000,
 933,   1,   0.000,
 934,   1,   0.000,
 935,   1,   0.000,
 936,   1,   0.000,
 937,   1,   0.000,
 938,   1,   0.000,
 939,   1,   0.000,
 940,   1,   0.000,
 941,   1,   0.000,
 942,   1,   0.000,
 943,   1,   0.000,
 944,   1,   0.000,
 945,   1,   0.000,
 946,   1,   0.000,
 947,   1,   0.000,
 948,   1,   0.000,
 949,   1,   0.000,
 950,   1,   0.000,
 951,   1,   0.000,
 952,   1,   0.000,
 953,   1,   0.000,
 954,   1,   0.000,
 955,   1,   0.000,
 956,   1,   0.000,
 957,   1,   0.000,
